…
Figure 1: Data reshaping

Wide to long

iris %>%
  pivot_longer(cols = -Species, names_to = "flower_part", values_to = "size")
## # A tibble: 600 x 3
##    Species flower_part   size
##    <fct>   <chr>        <dbl>
##  1 setosa  Sepal.Length   5.1
##  2 setosa  Sepal.Width    3.5
##  3 setosa  Petal.Length   1.4
##  4 setosa  Petal.Width    0.2
##  5 setosa  Sepal.Length   4.9
##  6 setosa  Sepal.Width    3  
##  7 setosa  Petal.Length   1.4
##  8 setosa  Petal.Width    0.2
##  9 setosa  Sepal.Length   4.7
## 10 setosa  Sepal.Width    3.2
## # ... with 590 more rows
…
